ip_repo/PMOD_PSX_1.0/hdl/PSX_Decode-out.vcd
$date
  Tue May  1 14:00:49 2018
$end
$version
  GHDL v0
$end
$timescale
  1 fs
$end
$var reg 1 ! in_clock $end
$var reg 1 " in_reset $end
$var reg 1 # out_done_strb $end
$var reg 1 $ out_busy $end
$var reg 1 % out_wait_ack $end
$var reg 1 & out_err $end
$var reg 8 ' out_data[7:0] $end
$var reg 2 ( in_atn[1:0] $end
$var reg 1 ) in_start $end
$var reg 8 * in_cmd[7:0] $end
$var reg 1 + out_pin_clock $end
$var reg 2 , out_pin_atn[1:0] $end
$var reg 1 - in_pin_ack $end
$var reg 1 . out_pin_cmd $end
$var reg 1 / in_pin_data $end
$scope module psx_decode_inst $end
$var reg 1 0 s_axi_clock $end
$var reg 1 1 s_axi_reset $end
$var reg 1 2 s_ctrl_done_strb $end
$var reg 1 3 s_ctrl_busy $end
$var reg 1 4 s_ctrl_wait_ack $end
$var reg 1 5 s_ctrl_err $end
$var reg 8 6 s_ctrl_data[7:0] $end
$var reg 2 7 s_ctrl_atn[1:0] $end
$var reg 1 8 s_ctrl_start $end
$var reg 8 9 s_ctrl_cmd[7:0] $end
$var reg 1 : s_pin_clock $end
$var reg 2 ; s_pin_atn[1:0] $end
$var reg 1 < s_ack $end
$var reg 1 = s_pin_cmd $end
$var reg 1 > s_data $end
$var reg 17 ? period_count[16:0] $end
$var reg 4 @ bit_count[3:0] $end
$var reg 1 A clk_gen $end
$comment state is not handled $end
$var reg 8 B cmd_sr[7:0] $end
$var reg 8 C data_sr[7:0] $end
$var reg 2 D curr_atn[1:0] $end
$var reg 1 E running_sig $end
$var reg 1 F prev_ack $end
$upscope $end
$enddefinitions $end
#0
1!
0"
U#
U$
0%
U&
bUUUUUUUU '
b00 (
0)
b00000000 *
U+
bUU ,
1-
U.
1/
10
01
U2
U3
04
U5
bUUUUUUUU 6
b00 7
08
b00000000 9
U:
bUU ;
1<
U=
1>
bUUUUUUUUUUUUUUUUU ?
bUUUU @
UA
bUUUUUUUU B
bUUUUUUUU C
bUU D
UE
UF
#5000000
0!
00
#10000000
1!
0#
0$
0&
b00000000 '
1+
b00 ,
1.
10
02
03
05
b00000000 6
1:
b00 ;
1=
b00000000000000000 ?
b0000 @
1A
b11111111 B
b00000000 C
b00 D
0E
1F
#15000000
0!
00
#20000000
1!
10
#25000000
0!
00
#30000000
1!
10
#35000000
0!
00
#40000000
1!
10
#45000000
0!
00
#50000000
1!
1"
10
11
#55000000
0!
00
#60000000
1!
10
#65000000
0!
00
#70000000
1!
10
#75000000
0!
00
#80000000
1!
10
#85000000
0!
00
#90000000
1!
10
#95000000
0!
00
#100000000
1!
b10 (
b10 ,
10
b10 7
b10 ;
b00000000110010000 ?
b10 D
#105000000
0!
00
#110000000
1!
10
b00000000110001111 ?
#115000000
0!
00
#120000000
1!
10
b00000000110001110 ?
#125000000
0!
00
#130000000
1!
10
b00000000110001101 ?
#135000000
0!
00
#140000000
1!
10
b00000000110001100 ?
#145000000
0!
00
#150000000
1!
b00000001 *
10
b00000001 9
b00000000110001011 ?
#155000000
0!
00
#160000000
1!
10
b00000000110001010 ?
#165000000
0!
00
#170000000
1!
10
b00000000110001001 ?
#175000000
0!
00
#180000000
1!
10
b00000000110001000 ?
#185000000
0!
00
#190000000
1!
10
b00000000110000111 ?
#195000000
0!
00
#200000000
1!
1$
1)
10
13
18
b00000000110000110 ?
1E
#205000000
0!
00
#210000000
1!
0)
10
08
b00000000110000101 ?
#215000000
0!
00
#220000000
1!
10
b00000000110000100 ?
#225000000
0!
00
#230000000
1!
10
b00000000110000011 ?
#235000000
0!
00
#240000000
1!
10
b00000000110000010 ?
#245000000
0!
00
#250000000
1!
10
b00000000110000001 ?
#255000000
0!
00
#260000000
1!
10
b00000000110000000 ?
#265000000
0!
00
#270000000
1!
10
b00000000101111111 ?
#275000000
0!
00
#280000000
1!
10
b00000000101111110 ?
#285000000
0!
00
#290000000
1!
10
b00000000101111101 ?
#295000000
0!
00
#300000000
1!
10
b00000000101111100 ?
#305000000
0!
00
#310000000
1!
10
b00000000101111011 ?
#315000000
0!
00
#320000000
1!
10
b00000000101111010 ?
#325000000
0!
00
#330000000
1!
10
b00000000101111001 ?
#335000000
0!
00
#340000000
1!
10
b00000000101111000 ?
#345000000
0!
00
#350000000
1!
10
b00000000101110111 ?
#355000000
0!
00
#360000000
1!
10
b00000000101110110 ?
#365000000
0!
00
#370000000
1!
10
b00000000101110101 ?
#375000000
0!
00
#380000000
1!
10
b00000000101110100 ?
#385000000
0!
00
#390000000
1!
10
b00000000101110011 ?
#395000000
0!
00
#400000000
1!
10
b00000000101110010 ?
#405000000
0!
00
#410000000
1!
10
b00000000101110001 ?
#415000000
0!
00
#420000000
1!
10
b00000000101110000 ?
#425000000
0!
00
#430000000
1!
10
b00000000101101111 ?
#435000000
0!
00
#440000000
1!
10
b00000000101101110 ?
#445000000
0!
00
#450000000
1!
10
b00000000101101101 ?
#455000000
0!
00
#460000000
1!
10
b00000000101101100 ?
#465000000
0!
00
#470000000
1!
10
b00000000101101011 ?
#475000000
0!
00
#480000000
1!
10
b00000000101101010 ?
#485000000
0!
00
#490000000
1!
10
b00000000101101001 ?
#495000000
0!
00
#500000000
1!
10
b00000000101101000 ?
#505000000
0!
00
#510000000
1!
10
b00000000101100111 ?
#515000000
0!
00
#520000000
1!
10
b00000000101100110 ?
#525000000
0!
00
#530000000
1!
10
b00000000101100101 ?
#535000000
0!
00
#540000000
1!
10
b00000000101100100 ?
#545000000
0!
00
#550000000
1!
10
b00000000101100011 ?
#555000000
0!
00
#560000000
1!
10
b00000000101100010 ?
#565000000
0!
00
#570000000
1!
10
b00000000101100001 ?
#575000000
0!
00
#580000000
1!
10
b00000000101100000 ?
#585000000
0!
00
#590000000
1!
10
b00000000101011111 ?
#595000000
0!
00
#600000000
1!
10
b00000000101011110 ?
#605000000
0!
00
#610000000
1!
10
b00000000101011101 ?
#615000000
0!
00
#620000000
1!
10
b00000000101011100 ?
#625000000
0!
00
#630000000
1!
10
b00000000101011011 ?
#635000000
0!
00
#640000000
1!
10
b00000000101011010 ?
#645000000
0!
00
#650000000
1!
10
b00000000101011001 ?
#655000000
0!
00
#660000000
1!
10
b00000000101011000 ?
#665000000
0!
00
#670000000
1!
10
b00000000101010111 ?
#675000000
0!
00
#680000000
1!
10
b00000000101010110 ?
#685000000
0!
00
#690000000
1!
10
b00000000101010101 ?
#695000000
0!
00
#700000000
1!
10
b00000000101010100 ?
#705000000
0!
00
#710000000
1!
10
b00000000101010011 ?
#715000000
0!
00
#720000000
1!
10
b00000000101010010 ?
#725000000
0!
00
#730000000
1!
10
b00000000101010001 ?
#735000000
0!
00
#740000000
1!
10
b00000000101010000 ?
#745000000
0!
00
#750000000
1!
10
b00000000101001111 ?
#755000000
0!
00
#760000000
1!
10
b00000000101001110 ?
#765000000
0!
00
#770000000
1!
10
b00000000101001101 ?
#775000000
0!
00
#780000000
1!
10
b00000000101001100 ?
#785000000
0!
00
#790000000
1!
10
b00000000101001011 ?
#795000000
0!
00
#800000000
1!
10
b00000000101001010 ?
#805000000
0!
00
#810000000
1!
10
b00000000101001001 ?
#815000000
0!
00
#820000000
1!
10
b00000000101001000 ?
#825000000
0!
00
#830000000
1!
10
b00000000101000111 ?
#835000000
0!
00
#840000000
1!
10
b00000000101000110 ?
#845000000
0!
00
#850000000
1!
10
b00000000101000101 ?
#855000000
0!
00
#860000000
1!
10
b00000000101000100 ?
#865000000
0!
00
#870000000
1!
10
b00000000101000011 ?
#875000000
0!
00
#880000000
1!
10
b00000000101000010 ?
#885000000
0!
00
#890000000
1!
10
b00000000101000001 ?
#895000000
0!
00
#900000000
1!
10
b00000000101000000 ?
#905000000
0!
00
#910000000
1!
10
b00000000100111111 ?
#915000000
0!
00
#920000000
1!
10
b00000000100111110 ?
#925000000
0!
00
#930000000
1!
10
b00000000100111101 ?
#935000000
0!
00
#940000000
1!
10
b00000000100111100 ?
#945000000
0!
00
#950000000
1!
10
b00000000100111011 ?
#955000000
0!
00
#960000000
1!
10
b00000000100111010 ?
#965000000
0!
00
#970000000
1!
10
b00000000100111001 ?
#975000000
0!
00
#980000000
1!
10
b00000000100111000 ?
#985000000
0!
00
#990000000
1!
10
b00000000100110111 ?
#995000000
0!
00
#1000000000
1!
10
b00000000100110110 ?
#1005000000
0!
00
#1010000000
1!
10
b00000000100110101 ?
#1015000000
0!
00
#1020000000
1!
10
b00000000100110100 ?
#1025000000
0!
00
#1030000000
1!
10
b00000000100110011 ?
#1035000000
0!
00
#1040000000
1!
10
b00000000100110010 ?
#1045000000
0!
00
#1050000000
1!
10
b00000000100110001 ?
#1055000000
0!
00
#1060000000
1!
10
b00000000100110000 ?
#1065000000
0!
00
#1070000000
1!
10
b00000000100101111 ?
#1075000000
0!
00
#1080000000
1!
10
b00000000100101110 ?
#1085000000
0!
00
#1090000000
1!
10
b00000000100101101 ?
#1095000000
0!
00
#1100000000
1!
10
b00000000100101100 ?
#1105000000
0!
00
#1110000000
1!
10
b00000000100101011 ?
#1115000000
0!
00
#1120000000
1!
10
b00000000100101010 ?
#1125000000
0!
00
#1130000000
1!
10
b00000000100101001 ?
#1135000000
0!
00
#1140000000
1!
10
b00000000100101000 ?
#1145000000
0!
00
#1150000000
1!
10
b00000000100100111 ?
#1155000000
0!
00
#1160000000
1!
10
b00000000100100110 ?
#1165000000
0!
00
#1170000000
1!
10
b00000000100100101 ?
#1175000000
0!
00
#1180000000
1!
10
b00000000100100100 ?
#1185000000
0!
00
#1190000000
1!
10
b00000000100100011 ?
#1195000000
0!
00
#1200000000
1!
10
b00000000100100010 ?
#1205000000
0!
00
#1210000000
1!
10
b00000000100100001 ?
#1215000000
0!
00
#1220000000
1!
10
b00000000100100000 ?
#1225000000
0!
00
#1230000000
1!
10
b00000000100011111 ?
#1235000000
0!
00
#1240000000
1!
10
b00000000100011110 ?
#1245000000
0!
00
#1250000000
1!
10
b00000000100011101 ?
#1255000000
0!
00
#1260000000
1!
10
b00000000100011100 ?
#1265000000
0!
00
#1270000000
1!
10
b00000000100011011 ?
#1275000000
0!
00
#1280000000
1!
10
b00000000100011010 ?
#1285000000
0!
00
#1290000000
1!
10
b00000000100011001 ?
#1295000000
0!
00
#1300000000
1!
10
b00000000100011000 ?
#1305000000
0!
00
#1310000000
1!
10
b00000000100010111 ?
#1315000000
0!
00
#1320000000
1!
10
b00000000100010110 ?
#1325000000
0!
00
#1330000000
1!
10
b00000000100010101 ?
#1335000000
0!
00
#1340000000
1!
10
b00000000100010100 ?
#1345000000
0!
00
#1350000000
1!
10
b00000000100010011 ?
#1355000000
0!
00
#1360000000
1!
10
b00000000100010010 ?
#1365000000
0!
00
#1370000000
1!
10
b00000000100010001 ?
#1375000000
0!
00
#1380000000
1!
10
b00000000100010000 ?
#1385000000
0!
00
#1390000000
1!
10
b00000000100001111 ?
#1395000000
0!
00
#1400000000
1!
10
b00000000100001110 ?
#1405000000
0!
00
#1410000000
1!
10
b00000000100001101 ?
#1415000000
0!
00
#1420000000
1!
10
b00000000100001100 ?
#1425000000
0!
00
#1430000000
1!
10
b00000000100001011 ?
#1435000000
0!
00
#1440000000
1!
10
b00000000100001010 ?
#1445000000
0!
00
#1450000000
1!
10
b00000000100001001 ?
#1455000000
0!
00
#1460000000
1!
10
b00000000100001000 ?
#1465000000
0!
00
#1470000000
1!
10
b00000000100000111 ?
#1475000000
0!
00
#1480000000
1!
10
b00000000100000110 ?
#1485000000
0!
00
#1490000000
1!
10
b00000000100000101 ?
#1495000000
0!
00
#1500000000
1!
10
b00000000100000100 ?
#1505000000
0!
00
#1510000000
1!
10
b00000000100000011 ?
#1515000000
0!
00
#1520000000
1!
10
b00000000100000010 ?
#1525000000
0!
00
#1530000000
1!
10
b00000000100000001 ?
#1535000000
0!
00
#1540000000
1!
10
b00000000100000000 ?
#1545000000
0!
00
#1550000000
1!
10
b00000000011111111 ?
#1555000000
0!
00
#1560000000
1!
10
b00000000011111110 ?
#1565000000
0!
00
#1570000000
1!
10
b00000000011111101 ?
#1575000000
0!
00
#1580000000
1!
10
b00000000011111100 ?
#1585000000
0!
00
#1590000000
1!
10
b00000000011111011 ?
#1595000000
0!
00
#1600000000
1!
10
b00000000011111010 ?
#1605000000
0!
00
#1610000000
1!
10
b00000000011111001 ?
#1615000000
0!
00
#1620000000
1!
10
b00000000011111000 ?
#1625000000
0!
00
#1630000000
1!
10
b00000000011110111 ?
#1635000000
0!
00
#1640000000
1!
10
b00000000011110110 ?
#1645000000
0!
00
#1650000000
1!
10
b00000000011110101 ?
#1655000000
0!
00
#1660000000
1!
10
b00000000011110100 ?
#1665000000
0!
00
#1670000000
1!
10
b00000000011110011 ?
#1675000000
0!
00
#1680000000
1!
10
b00000000011110010 ?
#1685000000
0!
00
#1690000000
1!
10
b00000000011110001 ?
#1695000000
0!
00
#1700000000
1!
10
b00000000011110000 ?
#1705000000
0!
00
#1710000000
1!
10
b00000000011101111 ?
#1715000000
0!
00
#1720000000
1!
10
b00000000011101110 ?
#1725000000
0!
00
#1730000000
1!
10
b00000000011101101 ?
#1735000000
0!
00
#1740000000
1!
10
b00000000011101100 ?
#1745000000
0!
00
#1750000000
1!
10
b00000000011101011 ?
#1755000000
0!
00
#1760000000
1!
10
b00000000011101010 ?
#1765000000
0!
00
#1770000000
1!
10
b00000000011101001 ?
#1775000000
0!
00
#1780000000
1!
10
b00000000011101000 ?
#1785000000
0!
00
#1790000000
1!
10
b00000000011100111 ?
#1795000000
0!
00
#1800000000
1!
10
b00000000011100110 ?
#1805000000
0!
00
#1810000000
1!
10
b00000000011100101 ?
#1815000000
0!
00
#1820000000
1!
10
b00000000011100100 ?
#1825000000
0!
00
#1830000000
1!
10
b00000000011100011 ?
#1835000000
0!
00
#1840000000
1!
10
b00000000011100010 ?
#1845000000
0!
00
#1850000000
1!
10
b00000000011100001 ?
#1855000000
0!
00
#1860000000
1!
10
b00000000011100000 ?
#1865000000
0!
00
#1870000000
1!
10
b00000000011011111 ?
#1875000000
0!
00
#1880000000
1!
10
b00000000011011110 ?
#1885000000
0!
00
#1890000000
1!
10
b00000000011011101 ?
#1895000000
0!
00
#1900000000
1!
10
b00000000011011100 ?
#1905000000
0!
00
#1910000000
1!
10
b00000000011011011 ?
#1915000000
0!
00
#1920000000
1!
10
b00000000011011010 ?
#1925000000
0!
00
#1930000000
1!
10
b00000000011011001 ?
#1935000000
0!
00
#1940000000
1!
10
b00000000011011000 ?
#1945000000
0!
00
#1950000000
1!
10
b00000000011010111 ?
#1955000000
0!
00
#1960000000
1!
10
b00000000011010110 ?
#1965000000
0!
00
#1970000000
1!
10
b00000000011010101 ?
#1975000000
0!
00
#1980000000
1!
10
b00000000011010100 ?
#1985000000
0!
00
#1990000000
1!
10
b00000000011010011 ?
#1995000000
0!
00
#2000000000
1!
10
b00000000011010010 ?
#2005000000
0!
00
#2010000000
1!
10
b00000000011010001 ?
#2015000000
0!
00
#2020000000
1!
10
b00000000011010000 ?
#2025000000
0!
00
#2030000000
1!
10
b00000000011001111 ?
#2035000000
0!
00
#2040000000
1!
10
b00000000011001110 ?
#2045000000
0!
00
#2050000000
1!
10
b00000000011001101 ?
#2055000000
0!
00
#2060000000
1!
10
b00000000011001100 ?
#2065000000
0!
00
#2070000000
1!
10
b00000000011001011 ?
#2075000000
0!
00
#2080000000
1!
10
b00000000011001010 ?
#2085000000
0!
00
#2090000000
1!
10
b00000000011001001 ?
#2095000000
0!
00
#2100000000
1!
10
b00000000011001000 ?
#2105000000
0!
00
#2110000000
1!
10
b00000000011000111 ?
#2115000000
0!
00
#2120000000
1!
10
b00000000011000110 ?
#2125000000
0!
00
#2130000000
1!
10
b00000000011000101 ?
#2135000000
0!
00
#2140000000
1!
10
b00000000011000100 ?
#2145000000
0!
00
#2150000000
1!
10
b00000000011000011 ?
#2155000000
0!
00
#2160000000
1!
10
b00000000011000010 ?
#2165000000
0!
00
#2170000000
1!
10
b00000000011000001 ?
#2175000000
0!
00
#2180000000
1!
10
b00000000011000000 ?
#2185000000
0!
00
#2190000000
1!
10
b00000000010111111 ?
#2195000000
0!
00
#2200000000
1!
10
b00000000010111110 ?
#2205000000
0!
00
#2210000000
1!
10
b00000000010111101 ?
#2215000000
0!
00
#2220000000
1!
10
b00000000010111100 ?
#2225000000
0!
00
#2230000000
1!
10
b00000000010111011 ?
#2235000000
0!
00
#2240000000
1!
10
b00000000010111010 ?
#2245000000
0!
00
#2250000000
1!
10
b00000000010111001 ?
#2255000000
0!
00
#2260000000
1!
10
b00000000010111000 ?
#2265000000
0!
00
#2270000000
1!
10
b00000000010110111 ?
#2275000000
0!
00
#2280000000
1!
10
b00000000010110110 ?
#2285000000
0!
00
#2290000000
1!
10
b00000000010110101 ?
#2295000000
0!
00
#2300000000
1!
10
b00000000010110100 ?
#2305000000
0!
00
#2310000000
1!
10
b00000000010110011 ?
#2315000000
0!
00
#2320000000
1!
10
b00000000010110010 ?
#2325000000
0!
00
#2330000000
1!
10
b00000000010110001 ?
#2335000000
0!
00
#2340000000
1!
10
b00000000010110000 ?
#2345000000
0!
00
#2350000000
1!
10
b00000000010101111 ?
#2355000000
0!
00
#2360000000
1!
10
b00000000010101110 ?
#2365000000
0!
00
#2370000000
1!
10
b00000000010101101 ?
#2375000000
0!
00
#2380000000
1!
10
b00000000010101100 ?
#2385000000
0!
00
#2390000000
1!
10
b00000000010101011 ?
#2395000000
0!
00
#2400000000
1!
10
b00000000010101010 ?
#2405000000
0!
00
#2410000000
1!
10
b00000000010101001 ?
#2415000000
0!
00
#2420000000
1!
10
b00000000010101000 ?
#2425000000
0!
00
#2430000000
1!
10
b00000000010100111 ?
#2435000000
0!
00
#2440000000
1!
10
b00000000010100110 ?
#2445000000
0!
00
#2450000000
1!
10
b00000000010100101 ?
#2455000000
0!
00
#2460000000
1!
10
b00000000010100100 ?
#2465000000
0!
00
#2470000000
1!
10
b00000000010100011 ?
#2475000000
0!
00
#2480000000
1!
10
b00000000010100010 ?
#2485000000
0!
00
#2490000000
1!
10
b00000000010100001 ?
#2495000000
0!
00
#2500000000
1!
10
b00000000010100000 ?
#2505000000
0!
00
#2510000000
1!
10
b00000000010011111 ?
#2515000000
0!
00
#2520000000
1!
10
b00000000010011110 ?
#2525000000
0!
00
#2530000000
1!
10
b00000000010011101 ?
#2535000000
0!
00
#2540000000
1!
10
b00000000010011100 ?
#2545000000
0!
00
#2550000000
1!
10
b00000000010011011 ?
#2555000000
0!
00
#2560000000
1!
10
b00000000010011010 ?
#2565000000
0!
00
#2570000000
1!
10
b00000000010011001 ?
#2575000000
0!
00
#2580000000
1!
10
b00000000010011000 ?
#2585000000
0!
00
#2590000000
1!
10
b00000000010010111 ?
#2595000000
0!
00
#2600000000
1!
10
b00000000010010110 ?
#2605000000
0!
00
#2610000000
1!
10
b00000000010010101 ?
#2615000000
0!
00
#2620000000
1!
10
b00000000010010100 ?
#2625000000
0!
00
#2630000000
1!
10
b00000000010010011 ?
#2635000000
0!
00
#2640000000
1!
10
b00000000010010010 ?
#2645000000
0!
00
#2650000000
1!
10
b00000000010010001 ?
#2655000000
0!
00
#2660000000
1!
10
b00000000010010000 ?
#2665000000
0!
00
#2670000000
1!
10
b00000000010001111 ?
#2675000000
0!
00
#2680000000
1!
10
b00000000010001110 ?
#2685000000
0!
00
#2690000000
1!
10
b00000000010001101 ?
#2695000000
0!
00
#2700000000
1!
10
b00000000010001100 ?
#2705000000
0!
00
#2710000000
1!
10
b00000000010001011 ?
#2715000000
0!
00
#2720000000
1!
10
b00000000010001010 ?
#2725000000
0!
00
#2730000000
1!
10
b00000000010001001 ?
#2735000000
0!
00
#2740000000
1!
10
b00000000010001000 ?
#2745000000
0!
00
#2750000000
1!
10
b00000000010000111 ?
#2755000000
0!
00
#2760000000
1!
10
b00000000010000110 ?
#2765000000
0!
00
#2770000000
1!
10
b00000000010000101 ?
#2775000000
0!
00
#2780000000
1!
10
b00000000010000100 ?
#2785000000
0!
00
#2790000000
1!
10
b00000000010000011 ?
#2795000000
0!
00
#2800000000
1!
10
b00000000010000010 ?
#2805000000
0!
00
#2810000000
1!
10
b00000000010000001 ?
#2815000000
0!
00
#2820000000
1!
10
b00000000010000000 ?
#2825000000
0!
00
#2830000000
1!
10
b00000000001111111 ?
#2835000000
0!
00
#2840000000
1!
10
b00000000001111110 ?
#2845000000
0!
00
#2850000000
1!
10
b00000000001111101 ?
#2855000000
0!
00
#2860000000
1!
10
b00000000001111100 ?
#2865000000
0!
00
#2870000000
1!
10
b00000000001111011 ?
#2875000000
0!
00
#2880000000
1!
10
b00000000001111010 ?
#2885000000
0!
00
#2890000000
1!
10
b00000000001111001 ?
#2895000000
0!
00
#2900000000
1!
10
b00000000001111000 ?
#2905000000
0!
00
#2910000000
1!
10
b00000000001110111 ?
#2915000000
0!
00
#2920000000
1!
10
b00000000001110110 ?
#2925000000
0!
00
#2930000000
1!
10
b00000000001110101 ?
#2935000000
0!
00
#2940000000
1!
10
b00000000001110100 ?
#2945000000
0!
00
#2950000000
1!
10
b00000000001110011 ?
#2955000000
0!
00
#2960000000
1!
10
b00000000001110010 ?
#2965000000
0!
00
#2970000000
1!
10
b00000000001110001 ?
#2975000000
0!
00
#2980000000
1!
10
b00000000001110000 ?
#2985000000
0!
00
#2990000000
1!
10
b00000000001101111 ?
#2995000000
0!
00
#3000000000
1!
10
b00000000001101110 ?
#3005000000
0!
00
#3010000000
1!
10
b00000000001101101 ?
#3015000000
0!
00
#3020000000
1!
10
b00000000001101100 ?
#3025000000
0!
00
#3030000000
1!
10
b00000000001101011 ?
#3035000000
0!
00
#3040000000
1!
10
b00000000001101010 ?
#3045000000
0!
00
#3050000000
1!
10
b00000000001101001 ?
#3055000000
0!
00
#3060000000
1!
10
b00000000001101000 ?
#3065000000
0!
00
#3070000000
1!
10
b00000000001100111 ?
#3075000000
0!
00
#3080000000
1!
10
b00000000001100110 ?
#3085000000
0!
00
#3090000000
1!
10
b00000000001100101 ?
#3095000000
0!
00
#3100000000
1!
10
b00000000001100100 ?
#3105000000
0!
00
#3110000000
1!
10
b00000000001100011 ?
#3115000000
0!
00
#3120000000
1!
10
b00000000001100010 ?
#3125000000
0!
00
#3130000000
1!
10
b00000000001100001 ?
#3135000000
0!
00
#3140000000
1!
10
b00000000001100000 ?
#3145000000
0!
00
#3150000000
1!
10
b00000000001011111 ?
#3155000000
0!
00
#3160000000
1!
10
b00000000001011110 ?
#3165000000
0!
00
#3170000000
1!
10
b00000000001011101 ?
#3175000000
0!
00
#3180000000
1!
10
b00000000001011100 ?
#3185000000
0!
00
#3190000000
1!
10
b00000000001011011 ?
#3195000000
0!
00
#3200000000
1!
10
b00000000001011010 ?
#3205000000
0!
00
#3210000000
1!
10
b00000000001011001 ?
#3215000000
0!
00
#3220000000
1!
10
b00000000001011000 ?
#3225000000
0!
00
#3230000000
1!
10
b00000000001010111 ?
#3235000000
0!
00
#3240000000
1!
10
b00000000001010110 ?
#3245000000
0!
00
#3250000000
1!
10
b00000000001010101 ?
#3255000000
0!
00
#3260000000
1!
10
b00000000001010100 ?
#3265000000
0!
00
#3270000000
1!
10
b00000000001010011 ?
#3275000000
0!
00
#3280000000
1!
10
b00000000001010010 ?
#3285000000
0!
00
#3290000000
1!
10
b00000000001010001 ?
#3295000000
0!
00
#3300000000
1!
10
b00000000001010000 ?
#3305000000
0!
00
#3310000000
1!
10
b00000000001001111 ?
#3315000000
0!
00
#3320000000
1!
10
b00000000001001110 ?
#3325000000
0!
00
#3330000000
1!
10
b00000000001001101 ?
#3335000000
0!
00
#3340000000
1!
10
b00000000001001100 ?
#3345000000
0!
00
#3350000000
1!
10
b00000000001001011 ?
#3355000000
0!
00
#3360000000
1!
10
b00000000001001010 ?
#3365000000
0!
00
#3370000000
1!
10
b00000000001001001 ?
#3375000000
0!
00
#3380000000
1!
10
b00000000001001000 ?
#3385000000
0!
00
#3390000000
1!
10
b00000000001000111 ?
#3395000000
0!
00
#3400000000
1!
10
b00000000001000110 ?
#3405000000
0!
00
#3410000000
1!
10
b00000000001000101 ?
#3415000000
0!
00
#3420000000
1!
10
b00000000001000100 ?
#3425000000
0!
00
#3430000000
1!
10
b00000000001000011 ?
#3435000000
0!
00
#3440000000
1!
10
b00000000001000010 ?
#3445000000
0!
00
#3450000000
1!
10
b00000000001000001 ?
#3455000000
0!
00
#3460000000
1!
10
b00000000001000000 ?
#3465000000
0!
00
#3470000000
1!
10
b00000000000111111 ?
#3475000000
0!
00
#3480000000
1!
10
b00000000000111110 ?
#3485000000
0!
00
#3490000000
1!
10
b00000000000111101 ?
#3495000000
0!
00
#3500000000
1!
10
b00000000000111100 ?
#3505000000
0!
00
#3510000000
1!
10
b00000000000111011 ?
#3515000000
0!
00
#3520000000
1!
10
b00000000000111010 ?
#3525000000
0!
00
#3530000000
1!
10
b00000000000111001 ?
#3535000000
0!
00
#3540000000
1!
10
b00000000000111000 ?
#3545000000
0!
00
#3550000000
1!
10
b00000000000110111 ?
#3555000000
0!
00
#3560000000
1!
10
b00000000000110110 ?
#3565000000
0!
00
#3570000000
1!
10
b00000000000110101 ?
#3575000000
0!
00
#3580000000
1!
10
b00000000000110100 ?
#3585000000
0!
00
#3590000000
1!
10
b00000000000110011 ?
#3595000000
0!
00
#3600000000
1!
10
b00000000000110010 ?
#3605000000
0!
00
#3610000000
1!
10
b00000000000110001 ?
#3615000000
0!
00
#3620000000
1!
10
b00000000000110000 ?
#3625000000
0!
00
#3630000000
1!
10
b00000000000101111 ?
#3635000000
0!
00
#3640000000
1!
10
b00000000000101110 ?
#3645000000
0!
00
#3650000000
1!
10
b00000000000101101 ?
#3655000000
0!
00
#3660000000
1!
10
b00000000000101100 ?
#3665000000
0!
00
#3670000000
1!
10
b00000000000101011 ?
#3675000000
0!
00
#3680000000
1!
10
b00000000000101010 ?
#3685000000
0!
00
#3690000000
1!
10
b00000000000101001 ?
#3695000000
0!
00
#3700000000
1!
10
b00000000000101000 ?
#3705000000
0!
00
#3710000000
1!
10
b00000000000100111 ?
#3715000000
0!
00
#3720000000
1!
10
b00000000000100110 ?
#3725000000
0!
00
#3730000000
1!
10
b00000000000100101 ?
#3735000000
0!
00
#3740000000
1!
10
b00000000000100100 ?
#3745000000
0!
00
#3750000000
1!
10
b00000000000100011 ?
#3755000000
0!
00
#3760000000
1!
10
b00000000000100010 ?
#3765000000
0!
00
#3770000000
1!
10
b00000000000100001 ?
#3775000000
0!
00
#3780000000
1!
10
b00000000000100000 ?
#3785000000
0!
00
#3790000000
1!
10
b00000000000011111 ?
#3795000000
0!
00
#3800000000
1!
10
b00000000000011110 ?
#3805000000
0!
00
#3810000000
1!
10
b00000000000011101 ?
#3815000000
0!
00
#3820000000
1!
10
b00000000000011100 ?
#3825000000
0!
00
#3830000000
1!
10
b00000000000011011 ?
#3835000000
0!
00
#3840000000
1!
10
b00000000000011010 ?
#3845000000
0!
00
#3850000000
1!
10
b00000000000011001 ?
#3855000000
0!
00
#3860000000
1!
10
b00000000000011000 ?
#3865000000
0!
00
#3870000000
1!
10
b00000000000010111 ?
#3875000000
0!
00
#3880000000
1!
10
b00000000000010110 ?
#3885000000
0!
00
#3890000000
1!
10
b00000000000010101 ?
#3895000000
0!
00
#3900000000
1!
10
b00000000000010100 ?
#3905000000
0!
00
#3910000000
1!
10
b00000000000010011 ?
#3915000000
0!
00
#3920000000
1!
10
b00000000000010010 ?
#3925000000
0!
00
#3930000000
1!
10
b00000000000010001 ?
#3935000000
0!
00
#3940000000
1!
10
b00000000000010000 ?
#3945000000
0!
00
#3950000000
1!
10
b00000000000001111 ?
#3955000000
0!
00
#3960000000
1!
10
b00000000000001110 ?
#3965000000
0!
00
#3970000000
1!
10
b00000000000001101 ?
#3975000000
0!
00
#3980000000
1!
10
b00000000000001100 ?
#3985000000
0!
00
#3990000000
1!
10
b00000000000001011 ?
#3995000000
0!
00
#4000000000
1!
10
b00000000000001010 ?
#4005000000
0!
00
#4010000000
1!
10
b00000000000001001 ?
#4015000000
0!
00
#4020000000
1!
10
b00000000000001000 ?
#4025000000
0!
00
#4030000000
1!
10
b00000000000000111 ?
#4035000000
0!
00
#4040000000
1!
10
b00000000000000110 ?
#4045000000
0!
00
#4050000000
1!
10
b00000000000000101 ?
#4055000000
0!
00
#4060000000
1!
10
b00000000000000100 ?
#4065000000
0!
00
#4070000000
1!
10
b00000000000000011 ?
#4075000000
0!
00
#4080000000
1!
10
b00000000000000010 ?
#4085000000
0!
00
#4090000000
1!
10
b00000000000000001 ?
#4095000000
0!
00
#4100000000
1!
10
b00000000000000000 ?
#4105000000
0!
00
#4110000000
1!
10
#4115000000
0!
00
#4120000000
1!
0+
0/
10
0:
0>
b00000000011001000 ?
b0001 @
0A
b00000001 B
#4125000000
0!
00
#4130000000
1!
10
b00000000011000111 ?
#4135000000
0!
00
#4140000000
1!
10
b00000000011000110 ?
#4145000000
0!
00
#4150000000
1!
10
b00000000011000101 ?
#4155000000
0!
00
#4160000000
1!
10
b00000000011000100 ?
#4165000000
0!
00
#4170000000
1!
10
b00000000011000011 ?
#4175000000
0!
00
#4180000000
1!
10
b00000000011000010 ?
#4185000000
0!
00
#4190000000
1!
10
b00000000011000001 ?
#4195000000
0!
00
#4200000000
1!
10
b00000000011000000 ?
#4205000000
0!
00
#4210000000
1!
10
b00000000010111111 ?
#4215000000
0!
00
#4220000000
1!
10
b00000000010111110 ?
#4225000000
0!
00
#4230000000
1!
10
b00000000010111101 ?
#4235000000
0!
00
#4240000000
1!
10
b00000000010111100 ?
#4245000000
0!
00
#4250000000
1!
10
b00000000010111011 ?
#4255000000
0!
00
#4260000000
1!
10
b00000000010111010 ?
